%YAML 1.1
%TAG !u! tag:unity3d.com,2011:
--- !u!1045 &1
EditorBuildSettings:
  m_ObjectHideFlags: 0
  serializedVersion: 2
  m_Scenes:
  - enabled: 1
    path: Assets/00_MainMenu.unity
    guid: c1a4c6c99a1f7db4684e4382c56c5d98
  - enabled: 1
    path: Assets/01_Level.unity
    guid: eac742d8e4cb73c43b6b2aa1fc133311
  - enabled: 1
    path: Assets/Project2LevelJeffreyLuther.unity
    guid: 58c318c4262639449a76e78b8e747cca
  - enabled: 1
    path: Assets/03_Level.unity
    guid: 9eec2dd6ab45c0b48864dcde5b9ef8cf
  - enabled: 1
    path: Assets/GameOver.unity
    guid: 00000000000000000000000000000000
